{
  "id": "98bfa143.67406",
  "type": "subflow",
  "name": "Return Template",
  "info": "",
  "in": [
    {
      "x": 104,
      "y": 222,
      "wires": [
        {
          "id": "98f821bc.6707e"
        }
      ]
    }
  ],
  "out": [
    {
      "x": 794,
      "y": 411,
      "wires": [
        {
          "id": "b43752f7.4bc8b",
          "port": 0
        }
      ]
    }
  ],
  "flow": [
    {
      "id": "98f821bc.6707e",
      "type": "ddb-in",
      "z": "98bfa143.67406",
      "region": "eu-west-1",
      "table": "notification_templates",
      "name": "Notification Templates",
      "x": 290,
      "y": 314,
      "wires": [
        [
          "b43752f7.4bc8b"
        ]
      ]
    },
    {
      "id": "b43752f7.4bc8b",
      "type": "function",
      "z": "98bfa143.67406",
      "name": "Pull out notification template",
      "func": "if (msg.payload.Items.length == 1){\n    msg.payload = msg.payload.Items[0]\n    msg.topic = \"notification_template\";\n    return msg;\n}else{\n    return null;\n}",
      "outputs": 1,
      "noerr": 0,
      "x": 575,
      "y": 315,
      "wires": [
        [
          "f21c120f.0de3f"
        ]
      ]
    },
    {
      "id": "f21c120f.0de3f",
      "type": "debug",
      "z": "98bfa143.67406",
      "name": "Notification Debug",
      "active": true,
      "console": "false",
      "complete": "payload",
      "x": 833.5,
      "y": 315,
      "wires": []
    }
  ]
}